Technistema - Introducing the schrute Package: the Entire Transcripts From The Office
…
If we want to analyze the entire data set, we need to remove some stop words first:

stop_words <- tidytext::stop_words

tidy.token.mydata <- token.mydata %>%
  dplyr::anti_join(stop_words, by = "word")

And then see what the most common words are:

tidy.token.mydata %>%
  dplyr::count(word, sort = TRUE) 

# A tibble: 18,960 × 2
   word        n
   <chr>   <int>
 1 yeah     2930
 2 hey      2232
 3 michael  1860
 4 uh       1463
 5 gonna    1405
 6 dwight   1345
 7 jim      1162
 8 time     1149
 9 pam      1043
10 guys      947
# ℹ 18,950 more rows
…
